<?xml version="1.0" standalone="no"?>
<svg width="567.429" height="388.399" viewBox="0 0 567.429 388.399" xmlns="http://www.w3.org/2000/svg" shape-rendering="crispEdges">
<title>
plots/2D_ot_residualMap_mean.svg
</title>
<desc>
Creator: ROOT Version 6.28/00
CreationDate: Thu Jul 13 19:06:09 2023</desc>
<defs>
</defs>
<rect x="0.5" y="0" width="566.929" height="387.899" fill="white"/>
<rect x="68.5315" y="7.75798" width="442.205" height="349.109" fill="white"/>
<rect x="68.5315" y="7.75798" width="442.205" height="349.109" fill="none" stroke="black"/>
<rect x="68.5315" y="7.75798" width="442.205" height="349.109" fill="white"/>
<rect x="68.5315" y="7.75798" width="442.205" height="349.109" fill="none" stroke="black"/>
<rect x="68.5315" y="327.775" width="26.012" height="29.0924" fill="#1dafb3"/>
<rect x="94.5435" y="327.775" width="26.012" height="29.0924" fill="#0e8ed0"/>
<rect x="120.556" y="327.775" width="26.012" height="29.0924" fill="#2db7a3"/>
<rect x="146.568" y="327.775" width="26.012" height="29.0924" fill="#f9f90e"/>
<rect x="172.58" y="327.775" width="26.012" height="29.0924" fill="#0da7c2"/>
<rect x="198.592" y="327.775" width="26.012" height="29.0924" fill="#2db7a3"/>
<rect x="224.604" y="327.775" width="26.012" height="29.0924" fill="#2db7a3"/>
<rect x="250.616" y="327.775" width="26.012" height="29.0924" fill="#0e8ed0"/>
<rect x="276.628" y="327.775" width="26.012" height="29.0924" fill="#2db7a3"/>
<rect x="302.64" y="327.775" width="26.012" height="29.0924" fill="#1380d5"/>
<rect x="328.652" y="327.775" width="26.012" height="29.0924" fill="#0da7c2"/>
<rect x="354.664" y="327.775" width="26.012" height="29.0924" fill="#94be71"/>
<rect x="380.676" y="327.775" width="26.012" height="29.0924" fill="#2db7a3"/>
<rect x="406.688" y="327.775" width="26.012" height="29.0924" fill="#1dafb3"/>
<rect x="432.7" y="327.775" width="26.012" height="29.0924" fill="#0e8ed0"/>
<rect x="458.712" y="327.775" width="26.012" height="29.0924" fill="#0da7c2"/>
<rect x="484.724" y="327.775" width="26.012" height="29.0924" fill="#2db7a3"/>
<rect x="68.5315" y="298.682" width="26.012" height="29.0924" fill="#1dafb3"/>
<rect x="94.5435" y="298.682" width="26.012" height="29.0924" fill="#94be71"/>
<rect x="120.556" y="298.682" width="26.012" height="29.0924" fill="#73bd80"/>
<rect x="146.568" y="298.682" width="26.012" height="29.0924" fill="#089dcc"/>
<rect x="172.58" y="298.682" width="26.012" height="29.0924" fill="#94be71"/>
<rect x="198.592" y="298.682" width="26.012" height="29.0924" fill="#1dafb3"/>
<rect x="224.604" y="298.682" width="26.012" height="29.0924" fill="#94be71"/>
<rect x="250.616" y="298.682" width="26.012" height="29.0924" fill="#94be71"/>
<rect x="276.628" y="298.682" width="26.012" height="29.0924" fill="#73bd80"/>
<rect x="302.64" y="298.682" width="26.012" height="29.0924" fill="#73bd80"/>
<rect x="328.652" y="298.682" width="26.012" height="29.0924" fill="#52ba91"/>
<rect x="354.664" y="298.682" width="26.012" height="29.0924" fill="#1171d8"/>
<rect x="380.676" y="298.682" width="26.012" height="29.0924" fill="#2db7a3"/>
<rect x="406.688" y="298.682" width="26.012" height="29.0924" fill="#94be71"/>
<rect x="432.7" y="298.682" width="26.012" height="29.0924" fill="#94be71"/>
<rect x="458.712" y="298.682" width="26.012" height="29.0924" fill="#73bd80"/>
<rect x="484.724" y="298.682" width="26.012" height="29.0924" fill="#f9f90e"/>
<rect x="68.5315" y="269.59" width="26.012" height="29.0924" fill="#1dafb3"/>
<rect x="94.5435" y="269.59" width="26.012" height="29.0924" fill="#2db7a3"/>
<rect x="120.556" y="269.59" width="26.012" height="29.0924" fill="#b2bc65"/>
<rect x="146.568" y="269.59" width="26.012" height="29.0924" fill="#94be71"/>
<rect x="172.58" y="269.59" width="26.012" height="29.0924" fill="#94be71"/>
<rect x="198.592" y="269.59" width="26.012" height="29.0924" fill="#1dafb3"/>
<rect x="224.604" y="269.59" width="26.012" height="29.0924" fill="#73bd80"/>
<rect x="250.616" y="269.59" width="26.012" height="29.0924" fill="#0e8ed0"/>
<rect x="276.628" y="269.59" width="26.012" height="29.0924" fill="#2db7a3"/>
<rect x="302.64" y="269.59" width="26.012" height="29.0924" fill="#94be71"/>
<rect x="328.652" y="269.59" width="26.012" height="29.0924" fill="#0e8ed0"/>
<rect x="354.664" y="269.59" width="26.012" height="29.0924" fill="#2db7a3"/>
<rect x="380.676" y="269.59" width="26.012" height="29.0924" fill="#089dcc"/>
<rect x="406.688" y="269.59" width="26.012" height="29.0924" fill="#94be71"/>
<rect x="432.7" y="269.59" width="26.012" height="29.0924" fill="#2db7a3"/>
<rect x="458.712" y="269.59" width="26.012" height="29.0924" fill="#94be71"/>
<rect x="484.724" y="269.59" width="26.012" height="29.0924" fill="#2db7a3"/>
<rect x="68.5315" y="240.497" width="26.012" height="29.0924" fill="#1dafb3"/>
<rect x="94.5435" y="240.497" width="26.012" height="29.0924" fill="#52ba91"/>
<rect x="120.556" y="240.497" width="26.012" height="29.0924" fill="#0da7c2"/>
<rect x="146.568" y="240.497" width="26.012" height="29.0924" fill="#1dafb3"/>
<rect x="172.58" y="240.497" width="26.012" height="29.0924" fill="#2db7a3"/>
<rect x="198.592" y="240.497" width="26.012" height="29.0924" fill="#73bd80"/>
<rect x="224.604" y="240.497" width="26.012" height="29.0924" fill="#2db7a3"/>
<rect x="250.616" y="240.497" width="26.012" height="29.0924" fill="#b2bc65"/>
<rect x="276.628" y="240.497" width="26.012" height="29.0924" fill="#2db7a3"/>
<rect x="302.64" y="240.497" width="26.012" height="29.0924" fill="#1dafb3"/>
<rect x="328.652" y="240.497" width="26.012" height="29.0924" fill="#089dcc"/>
<rect x="354.664" y="240.497" width="26.012" height="29.0924" fill="#0da7c2"/>
<rect x="380.676" y="240.497" width="26.012" height="29.0924" fill="#1dafb3"/>
<rect x="406.688" y="240.497" width="26.012" height="29.0924" fill="#089dcc"/>
<rect x="432.7" y="240.497" width="26.012" height="29.0924" fill="#0da7c2"/>
<rect x="458.712" y="240.497" width="26.012" height="29.0924" fill="#1dafb3"/>
<rect x="484.724" y="240.497" width="26.012" height="29.0924" fill="#52ba91"/>
<rect x="68.5315" y="211.405" width="26.012" height="29.0924" fill="#1dafb3"/>
<rect x="94.5435" y="211.405" width="26.012" height="29.0924" fill="#1380d5"/>
<rect x="120.556" y="211.405" width="26.012" height="29.0924" fill="#0e8ed0"/>
<rect x="146.568" y="211.405" width="26.012" height="29.0924" fill="#2db7a3"/>
<rect x="172.58" y="211.405" width="26.012" height="29.0924" fill="#1171d8"/>
<rect x="198.592" y="211.405" width="26.012" height="29.0924" fill="#52ba91"/>
<rect x="224.604" y="211.405" width="26.012" height="29.0924" fill="#73bd80"/>
<rect x="250.616" y="211.405" width="26.012" height="29.0924" fill="#089dcc"/>
<rect x="276.628" y="211.405" width="26.012" height="29.0924" fill="#089dcc"/>
<rect x="302.64" y="211.405" width="26.012" height="29.0924" fill="#263da8"/>
<rect x="328.652" y="211.405" width="26.012" height="29.0924" fill="#089dcc"/>
<rect x="354.664" y="211.405" width="26.012" height="29.0924" fill="#1380d5"/>
<rect x="380.676" y="211.405" width="26.012" height="29.0924" fill="#1380d5"/>
<rect x="406.688" y="211.405" width="26.012" height="29.0924" fill="#1171d8"/>
<rect x="432.7" y="211.405" width="26.012" height="29.0924" fill="#089dcc"/>
<rect x="458.712" y="211.405" width="26.012" height="29.0924" fill="#2db7a3"/>
<rect x="484.724" y="211.405" width="26.012" height="29.0924" fill="#1380d5"/>
<rect x="68.5315" y="182.312" width="26.012" height="29.0924" fill="#1dafb3"/>
<rect x="94.5435" y="182.312" width="26.012" height="29.0924" fill="#94be71"/>
<rect x="120.556" y="182.312" width="26.012" height="29.0924" fill="#e1bf4a"/>
<rect x="146.568" y="182.312" width="26.012" height="29.0924" fill="#2db7a3"/>
<rect x="172.58" y="182.312" width="26.012" height="29.0924" fill="#94be71"/>
<rect x="198.592" y="182.312" width="26.012" height="29.0924" fill="#1dafb3"/>
<rect x="224.604" y="182.312" width="26.012" height="29.0924" fill="#1dafb3"/>
<rect x="250.616" y="182.312" width="26.012" height="29.0924" fill="#2db7a3"/>
<rect x="276.628" y="182.312" width="26.012" height="29.0924" fill="#52ba91"/>
<rect x="302.64" y="182.312" width="26.012" height="29.0924" fill="#0da7c2"/>
<rect x="328.652" y="182.312" width="26.012" height="29.0924" fill="#73bd80"/>
<rect x="354.664" y="182.312" width="26.012" height="29.0924" fill="#1dafb3"/>
<rect x="380.676" y="182.312" width="26.012" height="29.0924" fill="#52ba91"/>
<rect x="406.688" y="182.312" width="26.012" height="29.0924" fill="#1dafb3"/>
<rect x="432.7" y="182.312" width="26.012" height="29.0924" fill="#0da7c2"/>
<rect x="458.712" y="182.312" width="26.012" height="29.0924" fill="#089dcc"/>
<rect x="484.724" y="182.312" width="26.012" height="29.0924" fill="#94be71"/>
<rect x="68.5315" y="153.22" width="26.012" height="29.0924" fill="#1dafb3"/>
<rect x="94.5435" y="153.22" width="26.012" height="29.0924" fill="#2db7a3"/>
<rect x="120.556" y="153.22" width="26.012" height="29.0924" fill="#1380d5"/>
<rect x="146.568" y="153.22" width="26.012" height="29.0924" fill="#2db7a3"/>
<rect x="172.58" y="153.22" width="26.012" height="29.0924" fill="#1dafb3"/>
<rect x="198.592" y="153.22" width="26.012" height="29.0924" fill="#94be71"/>
<rect x="224.604" y="153.22" width="26.012" height="29.0924" fill="#1063db"/>
<rect x="250.616" y="153.22" width="26.012" height="29.0924" fill="#1dafb3"/>
<rect x="276.628" y="153.22" width="26.012" height="29.0924" fill="#1652cc"/>
<rect x="302.64" y="153.22" width="26.012" height="29.0924" fill="#0e8ed0"/>
<rect x="328.652" y="153.22" width="26.012" height="29.0924" fill="#089dcc"/>
<rect x="354.664" y="153.22" width="26.012" height="29.0924" fill="#0da7c2"/>
<rect x="380.676" y="153.22" width="26.012" height="29.0924" fill="#1652cc"/>
<rect x="406.688" y="153.22" width="26.012" height="29.0924" fill="#089dcc"/>
<rect x="432.7" y="153.22" width="26.012" height="29.0924" fill="#1171d8"/>
<rect x="458.712" y="153.22" width="26.012" height="29.0924" fill="#52ba91"/>
<rect x="484.724" y="153.22" width="26.012" height="29.0924" fill="#0e8ed0"/>
<rect x="68.5315" y="124.128" width="26.012" height="29.0924" fill="#1dafb3"/>
<rect x="94.5435" y="124.128" width="26.012" height="29.0924" fill="#2db7a3"/>
<rect x="120.556" y="124.128" width="26.012" height="29.0924" fill="#fae61c"/>
<rect x="146.568" y="124.128" width="26.012" height="29.0924" fill="#1dafb3"/>
<rect x="172.58" y="124.128" width="26.012" height="29.0924" fill="#1dafb3"/>
<rect x="198.592" y="124.128" width="26.012" height="29.0924" fill="#1380d5"/>
<rect x="224.604" y="124.128" width="26.012" height="29.0924" fill="#f9f90e"/>
<rect x="250.616" y="124.128" width="26.012" height="29.0924" fill="#0e8ed0"/>
<rect x="276.628" y="124.128" width="26.012" height="29.0924" fill="#d0ba59"/>
<rect x="302.64" y="124.128" width="26.012" height="29.0924" fill="#1dafb3"/>
<rect x="328.652" y="124.128" width="26.012" height="29.0924" fill="#089dcc"/>
<rect x="354.664" y="124.128" width="26.012" height="29.0924" fill="#1171d8"/>
<rect x="380.676" y="124.128" width="26.012" height="29.0924" fill="#73bd80"/>
<rect x="406.688" y="124.128" width="26.012" height="29.0924" fill="#1dafb3"/>
<rect x="432.7" y="124.128" width="26.012" height="29.0924" fill="#d0ba59"/>
<rect x="458.712" y="124.128" width="26.012" height="29.0924" fill="#0e8ed0"/>
<rect x="484.724" y="124.128" width="26.012" height="29.0924" fill="#d0ba59"/>
<rect x="68.5315" y="95.0352" width="26.012" height="29.0924" fill="#1dafb3"/>
<rect x="94.5435" y="95.0352" width="26.012" height="29.0924" fill="#52ba91"/>
<rect x="120.556" y="95.0352" width="26.012" height="29.0924" fill="#0da7c2"/>
<rect x="146.568" y="95.0352" width="26.012" height="29.0924" fill="#1dafb3"/>
<rect x="172.58" y="95.0352" width="26.012" height="29.0924" fill="#089dcc"/>
<rect x="198.592" y="95.0352" width="26.012" height="29.0924" fill="#0da7c2"/>
<rect x="224.604" y="95.0352" width="26.012" height="29.0924" fill="#089dcc"/>
<rect x="250.616" y="95.0352" width="26.012" height="29.0924" fill="#0da7c2"/>
<rect x="276.628" y="95.0352" width="26.012" height="29.0924" fill="#089dcc"/>
<rect x="302.64" y="95.0352" width="26.012" height="29.0924" fill="#0e8ed0"/>
<rect x="328.652" y="95.0352" width="26.012" height="29.0924" fill="#0da7c2"/>
<rect x="354.664" y="95.0352" width="26.012" height="29.0924" fill="#1171d8"/>
<rect x="380.676" y="95.0352" width="26.012" height="29.0924" fill="#0e8ed0"/>
<rect x="406.688" y="95.0352" width="26.012" height="29.0924" fill="#0e8ed0"/>
<rect x="432.7" y="95.0352" width="26.012" height="29.0924" fill="#089dcc"/>
<rect x="458.712" y="95.0352" width="26.012" height="29.0924" fill="#089dcc"/>
<rect x="484.724" y="95.0352" width="26.012" height="29.0924" fill="#0da7c2"/>
<rect x="68.5315" y="65.9428" width="26.012" height="29.0924" fill="#1dafb3"/>
<rect x="94.5435" y="65.9428" width="26.012" height="29.0924" fill="#1dafb3"/>
<rect x="120.556" y="65.9428" width="26.012" height="29.0924" fill="#d0ba59"/>
<rect x="146.568" y="65.9428" width="26.012" height="29.0924" fill="#94be71"/>
<rect x="172.58" y="65.9428" width="26.012" height="29.0924" fill="#52ba91"/>
<rect x="198.592" y="65.9428" width="26.012" height="29.0924" fill="#52ba91"/>
<rect x="224.604" y="65.9428" width="26.012" height="29.0924" fill="#52ba91"/>
<rect x="250.616" y="65.9428" width="26.012" height="29.0924" fill="#52ba91"/>
<rect x="276.628" y="65.9428" width="26.012" height="29.0924" fill="#52ba91"/>
<rect x="302.64" y="65.9428" width="26.012" height="29.0924" fill="#73bd80"/>
<rect x="328.652" y="65.9428" width="26.012" height="29.0924" fill="#089dcc"/>
<rect x="354.664" y="65.9428" width="26.012" height="29.0924" fill="#94be71"/>
<rect x="380.676" y="65.9428" width="26.012" height="29.0924" fill="#1dafb3"/>
<rect x="406.688" y="65.9428" width="26.012" height="29.0924" fill="#b2bc65"/>
<rect x="432.7" y="65.9428" width="26.012" height="29.0924" fill="#b2bc65"/>
<rect x="458.712" y="65.9428" width="26.012" height="29.0924" fill="#b2bc65"/>
<rect x="484.724" y="65.9428" width="26.012" height="29.0924" fill="#94be71"/>
<rect x="68.5315" y="36.8504" width="26.012" height="29.0924" fill="#1dafb3"/>
<rect x="94.5435" y="36.8504" width="26.012" height="29.0924" fill="#1dafb3"/>
<rect x="120.556" y="36.8504" width="26.012" height="29.0924" fill="#1652cc"/>
<rect x="146.568" y="36.8504" width="26.012" height="29.0924" fill="#2db7a3"/>
<rect x="172.58" y="36.8504" width="26.012" height="29.0924" fill="#0da7c2"/>
<rect x="198.592" y="36.8504" width="26.012" height="29.0924" fill="#52ba91"/>
<rect x="224.604" y="36.8504" width="26.012" height="29.0924" fill="#089dcc"/>
<rect x="250.616" y="36.8504" width="26.012" height="29.0924" fill="#2db7a3"/>
<rect x="276.628" y="36.8504" width="26.012" height="29.0924" fill="#0e8ed0"/>
<rect x="302.64" y="36.8504" width="26.012" height="29.0924" fill="#2db7a3"/>
<rect x="328.652" y="36.8504" width="26.012" height="29.0924" fill="#089dcc"/>
<rect x="354.664" y="36.8504" width="26.012" height="29.0924" fill="#b2bc65"/>
<rect x="380.676" y="36.8504" width="26.012" height="29.0924" fill="#1380d5"/>
<rect x="406.688" y="36.8504" width="26.012" height="29.0924" fill="#0da7c2"/>
<rect x="432.7" y="36.8504" width="26.012" height="29.0924" fill="#089dcc"/>
<rect x="458.712" y="36.8504" width="26.012" height="29.0924" fill="#089dcc"/>
<rect x="484.724" y="36.8504" width="26.012" height="29.0924" fill="#0da7c2"/>
<rect x="68.5315" y="7.75798" width="26.012" height="29.0924" fill="#1dafb3"/>
<rect x="94.5435" y="7.75798" width="26.012" height="29.0924" fill="#73bd80"/>
<rect x="120.556" y="7.75798" width="26.012" height="29.0924" fill="#b2bc65"/>
<rect x="146.568" y="7.75798" width="26.012" height="29.0924" fill="#52ba91"/>
<rect x="172.58" y="7.75798" width="26.012" height="29.0924" fill="#d0ba59"/>
<rect x="198.592" y="7.75798" width="26.012" height="29.0924" fill="#73bd80"/>
<rect x="224.604" y="7.75798" width="26.012" height="29.0924" fill="#d0ba59"/>
<rect x="250.616" y="7.75798" width="26.012" height="29.0924" fill="#1dafb3"/>
<rect x="276.628" y="7.75798" width="26.012" height="29.0924" fill="#e1bf4a"/>
<rect x="302.64" y="7.75798" width="26.012" height="29.0924" fill="#2db7a3"/>
<rect x="328.652" y="7.75798" width="26.012" height="29.0924" fill="#d0ba59"/>
<rect x="354.664" y="7.75798" width="26.012" height="29.0924" fill="#0e8ed0"/>
<rect x="380.676" y="7.75798" width="26.012" height="29.0924" fill="#b2bc65"/>
<rect x="406.688" y="7.75798" width="26.012" height="29.0924" fill="#52ba91"/>
<rect x="432.7" y="7.75798" width="26.012" height="29.0924" fill="#e1bf4a"/>
<rect x="458.712" y="7.75798" width="26.012" height="29.0924" fill="#94be71"/>
<rect x="484.724" y="7.75798" width="26.012" height="29.0924" fill="#94be71"/>
<text xml:space="preserve" x="96.1184" y="344.498" fill="black" font-size="7.61741" font-family="Helvetica" font-weight="bold">-0.106</text>
<text xml:space="preserve" x="123.922" y="344.498" fill="black" font-size="7.61741" font-family="Helvetica" font-weight="bold">0.016</text>
<text xml:space="preserve" x="149.692" y="344.498" fill="black" font-size="7.61741" font-family="Helvetica" font-weight="bold">0.308</text>
<text xml:space="preserve" x="176.14" y="344.498" fill="black" font-size="7.61741" font-family="Helvetica" font-weight="bold">-0.05</text>
<text xml:space="preserve" x="202.587" y="344.498" fill="black" font-size="7.61741" font-family="Helvetica" font-weight="bold">0.031</text>
<text xml:space="preserve" x="227.679" y="344.498" fill="black" font-size="7.61741" font-family="Helvetica" font-weight="bold">0.006</text>
<text xml:space="preserve" x="252.77" y="344.498" fill="black" font-size="7.61741" font-family="Helvetica" font-weight="bold">-0.082</text>
<text xml:space="preserve" x="279.896" y="344.498" fill="black" font-size="7.61741" font-family="Helvetica" font-weight="bold">0.013</text>
<text xml:space="preserve" x="304.309" y="344.498" fill="black" font-size="7.61741" font-family="Helvetica" font-weight="bold">-0.118</text>
<text xml:space="preserve" x="330.757" y="344.498" fill="black" font-size="7.61741" font-family="Helvetica" font-weight="bold">-0.047</text>
<text xml:space="preserve" x="357.882" y="344.498" fill="black" font-size="7.61741" font-family="Helvetica" font-weight="bold">0.104</text>
<text xml:space="preserve" x="383.652" y="344.498" fill="black" font-size="7.61741" font-family="Helvetica" font-weight="bold">0.006</text>
<text xml:space="preserve" x="408.743" y="344.498" fill="black" font-size="7.61741" font-family="Helvetica" font-weight="bold">-0.014</text>
<text xml:space="preserve" x="434.513" y="344.498" fill="black" font-size="7.61741" font-family="Helvetica" font-weight="bold">-0.084</text>
<text xml:space="preserve" x="460.282" y="344.498" fill="black" font-size="7.61741" font-family="Helvetica" font-weight="bold">-0.044</text>
<text xml:space="preserve" x="488.086" y="344.498" fill="black" font-size="7.61741" font-family="Helvetica" font-weight="bold">0.028</text>
<text xml:space="preserve" x="97.4747" y="315.337" fill="black" font-size="7.61741" font-family="Helvetica" font-weight="bold">0.107</text>
<text xml:space="preserve" x="125.957" y="315.337" fill="black" font-size="7.61741" font-family="Helvetica" font-weight="bold">0.07</text>
<text xml:space="preserve" x="148.336" y="315.337" fill="black" font-size="7.61741" font-family="Helvetica" font-weight="bold">-0.054</text>
<text xml:space="preserve" x="180.208" y="315.337" fill="black" font-size="7.61741" font-family="Helvetica" font-weight="bold">0.1</text>
<text xml:space="preserve" x="200.553" y="315.337" fill="black" font-size="7.61741" font-family="Helvetica" font-weight="bold">-0.003</text>
<text xml:space="preserve" x="227.679" y="315.337" fill="black" font-size="7.61741" font-family="Helvetica" font-weight="bold">0.099</text>
<text xml:space="preserve" x="254.804" y="315.337" fill="black" font-size="7.61741" font-family="Helvetica" font-weight="bold">0.111</text>
<text xml:space="preserve" x="279.896" y="315.337" fill="black" font-size="7.61741" font-family="Helvetica" font-weight="bold">0.063</text>
<text xml:space="preserve" x="305.665" y="315.337" fill="black" font-size="7.61741" font-family="Helvetica" font-weight="bold">0.066</text>
<text xml:space="preserve" x="332.791" y="315.337" fill="black" font-size="7.61741" font-family="Helvetica" font-weight="bold">0.051</text>
<text xml:space="preserve" x="356.526" y="315.337" fill="black" font-size="7.61741" font-family="Helvetica" font-weight="bold">-0.144</text>
<text xml:space="preserve" x="383.652" y="315.337" fill="black" font-size="7.61741" font-family="Helvetica" font-weight="bold">0.022</text>
<text xml:space="preserve" x="410.1" y="315.337" fill="black" font-size="7.61741" font-family="Helvetica" font-weight="bold">0.094</text>
<text xml:space="preserve" x="437.903" y="315.337" fill="black" font-size="7.61741" font-family="Helvetica" font-weight="bold">0.09</text>
<text xml:space="preserve" x="461.639" y="315.337" fill="black" font-size="7.61741" font-family="Helvetica" font-weight="bold">0.063</text>
<text xml:space="preserve" x="488.086" y="315.337" fill="black" font-size="7.61741" font-family="Helvetica" font-weight="bold">0.285</text>
<text xml:space="preserve" x="97.4747" y="286.177" fill="black" font-size="7.61741" font-family="Helvetica" font-weight="bold">0.006</text>
<text xml:space="preserve" x="123.922" y="286.177" fill="black" font-size="7.61741" font-family="Helvetica" font-weight="bold">0.128</text>
<text xml:space="preserve" x="149.692" y="286.177" fill="black" font-size="7.61741" font-family="Helvetica" font-weight="bold">0.093</text>
<text xml:space="preserve" x="177.496" y="286.177" fill="black" font-size="7.61741" font-family="Helvetica" font-weight="bold">0.09</text>
<text xml:space="preserve" x="227.679" y="286.177" fill="black" font-size="7.61741" font-family="Helvetica" font-weight="bold">0.069</text>
<text xml:space="preserve" x="252.77" y="286.177" fill="black" font-size="7.61741" font-family="Helvetica" font-weight="bold">-0.102</text>
<text xml:space="preserve" x="280.574" y="286.177" fill="black" font-size="7.61741" font-family="Helvetica" font-weight="bold">0.031</text>
<text xml:space="preserve" x="305.665" y="286.177" fill="black" font-size="7.61741" font-family="Helvetica" font-weight="bold">0.088</text>
<text xml:space="preserve" x="331.435" y="286.177" fill="black" font-size="7.61741" font-family="Helvetica" font-weight="bold">-0.101</text>
<text xml:space="preserve" x="357.882" y="286.177" fill="black" font-size="7.61741" font-family="Helvetica" font-weight="bold">0.026</text>
<text xml:space="preserve" x="382.296" y="286.177" fill="black" font-size="7.61741" font-family="Helvetica" font-weight="bold">-0.052</text>
<text xml:space="preserve" x="410.1" y="286.177" fill="black" font-size="7.61741" font-family="Helvetica" font-weight="bold">0.099</text>
<text xml:space="preserve" x="435.869" y="286.177" fill="black" font-size="7.61741" font-family="Helvetica" font-weight="bold">0.024</text>
<text xml:space="preserve" x="461.639" y="286.177" fill="black" font-size="7.61741" font-family="Helvetica" font-weight="bold">0.099</text>
<text xml:space="preserve" x="488.086" y="286.177" fill="black" font-size="7.61741" font-family="Helvetica" font-weight="bold">0.017</text>
<text xml:space="preserve" x="97.4747" y="257.695" fill="black" font-size="7.61741" font-family="Helvetica" font-weight="bold">0.052</text>
<text xml:space="preserve" x="122.566" y="257.695" fill="black" font-size="7.61741" font-family="Helvetica" font-weight="bold">-0.044</text>
<text xml:space="preserve" x="150.37" y="257.695" fill="black" font-size="7.61741" font-family="Helvetica" font-weight="bold">0.001</text>
<text xml:space="preserve" x="175.461" y="257.695" fill="black" font-size="7.61741" font-family="Helvetica" font-weight="bold">0.027</text>
<text xml:space="preserve" x="203.943" y="257.695" fill="black" font-size="7.61741" font-family="Helvetica" font-weight="bold">0.06</text>
<text xml:space="preserve" x="227.679" y="257.695" fill="black" font-size="7.61741" font-family="Helvetica" font-weight="bold">0.027</text>
<text xml:space="preserve" x="254.126" y="257.695" fill="black" font-size="7.61741" font-family="Helvetica" font-weight="bold">0.122</text>
<text xml:space="preserve" x="281.93" y="257.695" fill="black" font-size="7.61741" font-family="Helvetica" font-weight="bold">0.03</text>
<text xml:space="preserve" x="304.309" y="257.695" fill="black" font-size="7.61741" font-family="Helvetica" font-weight="bold">-0.009</text>
<text xml:space="preserve" x="330.757" y="257.695" fill="black" font-size="7.61741" font-family="Helvetica" font-weight="bold">-0.074</text>
<text xml:space="preserve" x="356.526" y="257.695" fill="black" font-size="7.61741" font-family="Helvetica" font-weight="bold">-0.026</text>
<text xml:space="preserve" x="382.296" y="257.695" fill="black" font-size="7.61741" font-family="Helvetica" font-weight="bold">-0.002</text>
<text xml:space="preserve" x="408.743" y="257.695" fill="black" font-size="7.61741" font-family="Helvetica" font-weight="bold">-0.074</text>
<text xml:space="preserve" x="435.191" y="257.695" fill="black" font-size="7.61741" font-family="Helvetica" font-weight="bold">-0.031</text>
<text xml:space="preserve" x="460.282" y="257.695" fill="black" font-size="7.61741" font-family="Helvetica" font-weight="bold">-0.013</text>
<text xml:space="preserve" x="488.086" y="257.695" fill="black" font-size="7.61741" font-family="Helvetica" font-weight="bold">0.044</text>
<text xml:space="preserve" x="96.7966" y="228.535" fill="black" font-size="7.61741" font-family="Helvetica" font-weight="bold">-0.121</text>
<text xml:space="preserve" x="124.601" y="228.535" fill="black" font-size="7.61741" font-family="Helvetica" font-weight="bold">-0.09</text>
<text xml:space="preserve" x="149.692" y="228.535" fill="black" font-size="7.61741" font-family="Helvetica" font-weight="bold">0.025</text>
<text xml:space="preserve" x="174.105" y="228.535" fill="black" font-size="7.61741" font-family="Helvetica" font-weight="bold">-0.158</text>
<text xml:space="preserve" x="201.909" y="228.535" fill="black" font-size="7.61741" font-family="Helvetica" font-weight="bold">0.052</text>
<text xml:space="preserve" x="227.679" y="228.535" fill="black" font-size="7.61741" font-family="Helvetica" font-weight="bold">0.067</text>
<text xml:space="preserve" x="252.77" y="228.535" fill="black" font-size="7.61741" font-family="Helvetica" font-weight="bold">-0.054</text>
<text xml:space="preserve" x="278.539" y="228.535" fill="black" font-size="7.61741" font-family="Helvetica" font-weight="bold">-0.054</text>
<text xml:space="preserve" x="304.309" y="228.535" fill="black" font-size="7.61741" font-family="Helvetica" font-weight="bold">-0.244</text>
<text xml:space="preserve" x="330.757" y="228.535" fill="black" font-size="7.61741" font-family="Helvetica" font-weight="bold">-0.072</text>
<text xml:space="preserve" x="356.526" y="228.535" fill="black" font-size="7.61741" font-family="Helvetica" font-weight="bold">-0.122</text>
<text xml:space="preserve" x="382.296" y="228.535" fill="black" font-size="7.61741" font-family="Helvetica" font-weight="bold">-0.125</text>
<text xml:space="preserve" x="410.778" y="228.535" fill="black" font-size="7.61741" font-family="Helvetica" font-weight="bold">-0.15</text>
<text xml:space="preserve" x="434.513" y="228.535" fill="black" font-size="7.61741" font-family="Helvetica" font-weight="bold">-0.065</text>
<text xml:space="preserve" x="461.639" y="228.535" fill="black" font-size="7.61741" font-family="Helvetica" font-weight="bold">0.008</text>
<text xml:space="preserve" x="489.442" y="228.535" fill="black" font-size="7.61741" font-family="Helvetica" font-weight="bold">-0.11</text>
<text xml:space="preserve" x="102.222" y="199.375" fill="black" font-size="7.61741" font-family="Helvetica" font-weight="bold">0.1</text>
<text xml:space="preserve" x="123.922" y="199.375" fill="black" font-size="7.61741" font-family="Helvetica" font-weight="bold">0.194</text>
<text xml:space="preserve" x="149.692" y="199.375" fill="black" font-size="7.61741" font-family="Helvetica" font-weight="bold">0.028</text>
<text xml:space="preserve" x="175.461" y="199.375" fill="black" font-size="7.61741" font-family="Helvetica" font-weight="bold">0.089</text>
<text xml:space="preserve" x="200.553" y="199.375" fill="black" font-size="7.61741" font-family="Helvetica" font-weight="bold">-0.022</text>
<text xml:space="preserve" x="226.322" y="199.375" fill="black" font-size="7.61741" font-family="Helvetica" font-weight="bold">-0.018</text>
<text xml:space="preserve" x="254.126" y="199.375" fill="black" font-size="7.61741" font-family="Helvetica" font-weight="bold">0.024</text>
<text xml:space="preserve" x="279.896" y="199.375" fill="black" font-size="7.61741" font-family="Helvetica" font-weight="bold">0.033</text>
<text xml:space="preserve" x="304.309" y="199.375" fill="black" font-size="7.61741" font-family="Helvetica" font-weight="bold">-0.024</text>
<text xml:space="preserve" x="334.147" y="199.375" fill="black" font-size="7.61741" font-family="Helvetica" font-weight="bold">0.06</text>
<text xml:space="preserve" x="356.526" y="199.375" fill="black" font-size="7.61741" font-family="Helvetica" font-weight="bold">-0.003</text>
<text xml:space="preserve" x="383.652" y="199.375" fill="black" font-size="7.61741" font-family="Helvetica" font-weight="bold">0.034</text>
<text xml:space="preserve" x="408.743" y="199.375" fill="black" font-size="7.61741" font-family="Helvetica" font-weight="bold">-0.009</text>
<text xml:space="preserve" x="434.513" y="199.375" fill="black" font-size="7.61741" font-family="Helvetica" font-weight="bold">-0.029</text>
<text xml:space="preserve" x="460.282" y="199.375" fill="black" font-size="7.61741" font-family="Helvetica" font-weight="bold">-0.073</text>
<text xml:space="preserve" x="488.764" y="199.375" fill="black" font-size="7.61741" font-family="Helvetica" font-weight="bold">0.091</text>
<text xml:space="preserve" x="97.4747" y="170.214" fill="black" font-size="7.61741" font-family="Helvetica" font-weight="bold">0.023</text>
<text xml:space="preserve" x="122.566" y="170.214" fill="black" font-size="7.61741" font-family="Helvetica" font-weight="bold">-0.107</text>
<text xml:space="preserve" x="149.692" y="170.214" fill="black" font-size="7.61741" font-family="Helvetica" font-weight="bold">0.009</text>
<text xml:space="preserve" x="174.105" y="170.214" fill="black" font-size="7.61741" font-family="Helvetica" font-weight="bold">-0.004</text>
<text xml:space="preserve" x="202.587" y="170.214" fill="black" font-size="7.61741" font-family="Helvetica" font-weight="bold">0.111</text>
<text xml:space="preserve" x="226.322" y="170.214" fill="black" font-size="7.61741" font-family="Helvetica" font-weight="bold">-0.184</text>
<text xml:space="preserve" x="254.804" y="170.214" fill="black" font-size="7.61741" font-family="Helvetica" font-weight="bold">-0.02</text>
<text xml:space="preserve" x="278.539" y="170.214" fill="black" font-size="7.61741" font-family="Helvetica" font-weight="bold">-0.198</text>
<text xml:space="preserve" x="306.343" y="170.214" fill="black" font-size="7.61741" font-family="Helvetica" font-weight="bold">-0.09</text>
<text xml:space="preserve" x="330.757" y="170.214" fill="black" font-size="7.61741" font-family="Helvetica" font-weight="bold">-0.077</text>
<text xml:space="preserve" x="356.526" y="170.214" fill="black" font-size="7.61741" font-family="Helvetica" font-weight="bold">-0.044</text>
<text xml:space="preserve" x="382.296" y="170.214" fill="black" font-size="7.61741" font-family="Helvetica" font-weight="bold">-0.189</text>
<text xml:space="preserve" x="409.421" y="170.214" fill="black" font-size="7.61741" font-family="Helvetica" font-weight="bold">-0.051</text>
<text xml:space="preserve" x="434.513" y="170.214" fill="black" font-size="7.61741" font-family="Helvetica" font-weight="bold">-0.147</text>
<text xml:space="preserve" x="463.673" y="170.214" fill="black" font-size="7.61741" font-family="Helvetica" font-weight="bold">0.05</text>
<text xml:space="preserve" x="486.73" y="170.214" fill="black" font-size="7.61741" font-family="Helvetica" font-weight="bold">-0.103</text>
<text xml:space="preserve" x="97.4747" y="141.054" fill="black" font-size="7.61741" font-family="Helvetica" font-weight="bold">0.016</text>
<text xml:space="preserve" x="123.922" y="141.054" fill="black" font-size="7.61741" font-family="Helvetica" font-weight="bold">0.272</text>
<text xml:space="preserve" x="148.336" y="141.054" fill="black" font-size="7.61741" font-family="Helvetica" font-weight="bold">-0.005</text>
<text xml:space="preserve" x="176.14" y="141.054" fill="black" font-size="7.61741" font-family="Helvetica" font-weight="bold">-0.02</text>
<text xml:space="preserve" x="200.553" y="141.054" fill="black" font-size="7.61741" font-family="Helvetica" font-weight="bold">-0.123</text>
<text xml:space="preserve" x="227.679" y="141.054" fill="black" font-size="7.61741" font-family="Helvetica" font-weight="bold">0.309</text>
<text xml:space="preserve" x="252.77" y="141.054" fill="black" font-size="7.61741" font-family="Helvetica" font-weight="bold">-0.088</text>
<text xml:space="preserve" x="279.896" y="141.054" fill="black" font-size="7.61741" font-family="Helvetica" font-weight="bold">0.156</text>
<text xml:space="preserve" x="304.309" y="141.054" fill="black" font-size="7.61741" font-family="Helvetica" font-weight="bold">-0.005</text>
<text xml:space="preserve" x="330.757" y="141.054" fill="black" font-size="7.61741" font-family="Helvetica" font-weight="bold">-0.068</text>
<text xml:space="preserve" x="356.526" y="141.054" fill="black" font-size="7.61741" font-family="Helvetica" font-weight="bold">-0.135</text>
<text xml:space="preserve" x="384.33" y="141.054" fill="black" font-size="7.61741" font-family="Helvetica" font-weight="bold">0.061</text>
<text xml:space="preserve" x="408.743" y="141.054" fill="black" font-size="7.61741" font-family="Helvetica" font-weight="bold">-0.007</text>
<text xml:space="preserve" x="435.869" y="141.054" fill="black" font-size="7.61741" font-family="Helvetica" font-weight="bold">0.154</text>
<text xml:space="preserve" x="460.282" y="141.054" fill="black" font-size="7.61741" font-family="Helvetica" font-weight="bold">-0.106</text>
<text xml:space="preserve" x="488.086" y="141.054" fill="black" font-size="7.61741" font-family="Helvetica" font-weight="bold">0.154</text>
<text xml:space="preserve" x="97.4747" y="111.894" fill="black" font-size="7.61741" font-family="Helvetica" font-weight="bold">0.043</text>
<text xml:space="preserve" x="122.566" y="111.894" fill="black" font-size="7.61741" font-family="Helvetica" font-weight="bold">-0.037</text>
<text xml:space="preserve" x="149.014" y="111.894" fill="black" font-size="7.61741" font-family="Helvetica" font-weight="bold">-0.021</text>
<text xml:space="preserve" x="174.105" y="111.894" fill="black" font-size="7.61741" font-family="Helvetica" font-weight="bold">-0.053</text>
<text xml:space="preserve" x="200.553" y="111.894" fill="black" font-size="7.61741" font-family="Helvetica" font-weight="bold">-0.038</text>
<text xml:space="preserve" x="226.322" y="111.894" fill="black" font-size="7.61741" font-family="Helvetica" font-weight="bold">-0.063</text>
<text xml:space="preserve" x="252.77" y="111.894" fill="black" font-size="7.61741" font-family="Helvetica" font-weight="bold">-0.044</text>
<text xml:space="preserve" x="278.539" y="111.894" fill="black" font-size="7.61741" font-family="Helvetica" font-weight="bold">-0.068</text>
<text xml:space="preserve" x="304.309" y="111.894" fill="black" font-size="7.61741" font-family="Helvetica" font-weight="bold">-0.093</text>
<text xml:space="preserve" x="330.757" y="111.894" fill="black" font-size="7.61741" font-family="Helvetica" font-weight="bold">-0.048</text>
<text xml:space="preserve" x="356.526" y="111.894" fill="black" font-size="7.61741" font-family="Helvetica" font-weight="bold">-0.153</text>
<text xml:space="preserve" x="382.296" y="111.894" fill="black" font-size="7.61741" font-family="Helvetica" font-weight="bold">-0.096</text>
<text xml:space="preserve" x="409.421" y="111.894" fill="black" font-size="7.61741" font-family="Helvetica" font-weight="bold">-0.101</text>
<text xml:space="preserve" x="436.547" y="111.894" fill="black" font-size="7.61741" font-family="Helvetica" font-weight="bold">-0.07</text>
<text xml:space="preserve" x="460.282" y="111.894" fill="black" font-size="7.61741" font-family="Helvetica" font-weight="bold">-0.063</text>
<text xml:space="preserve" x="486.73" y="111.894" fill="black" font-size="7.61741" font-family="Helvetica" font-weight="bold">-0.039</text>
<text xml:space="preserve" x="123.922" y="82.7337" fill="black" font-size="7.61741" font-family="Helvetica" font-weight="bold">0.145</text>
<text xml:space="preserve" x="149.692" y="82.7337" fill="black" font-size="7.61741" font-family="Helvetica" font-weight="bold">0.109</text>
<text xml:space="preserve" x="175.461" y="82.7337" fill="black" font-size="7.61741" font-family="Helvetica" font-weight="bold">0.042</text>
<text xml:space="preserve" x="201.909" y="82.7337" fill="black" font-size="7.61741" font-family="Helvetica" font-weight="bold">0.034</text>
<text xml:space="preserve" x="227.679" y="82.7337" fill="black" font-size="7.61741" font-family="Helvetica" font-weight="bold">0.046</text>
<text xml:space="preserve" x="256.161" y="82.7337" fill="black" font-size="7.61741" font-family="Helvetica" font-weight="bold">0.05</text>
<text xml:space="preserve" x="281.93" y="82.7337" fill="black" font-size="7.61741" font-family="Helvetica" font-weight="bold">0.05</text>
<text xml:space="preserve" x="305.665" y="82.7337" fill="black" font-size="7.61741" font-family="Helvetica" font-weight="bold">0.077</text>
<text xml:space="preserve" x="330.757" y="82.7337" fill="black" font-size="7.61741" font-family="Helvetica" font-weight="bold">-0.063</text>
<text xml:space="preserve" x="357.882" y="82.7337" fill="black" font-size="7.61741" font-family="Helvetica" font-weight="bold">0.099</text>
<text xml:space="preserve" x="382.296" y="82.7337" fill="black" font-size="7.61741" font-family="Helvetica" font-weight="bold">-0.013</text>
<text xml:space="preserve" x="412.134" y="82.7337" fill="black" font-size="7.61741" font-family="Helvetica" font-weight="bold">0.12</text>
<text xml:space="preserve" x="435.869" y="82.7337" fill="black" font-size="7.61741" font-family="Helvetica" font-weight="bold">0.116</text>
<text xml:space="preserve" x="462.317" y="82.7337" fill="black" font-size="7.61741" font-family="Helvetica" font-weight="bold">0.121</text>
<text xml:space="preserve" x="488.086" y="82.7337" fill="black" font-size="7.61741" font-family="Helvetica" font-weight="bold">0.095</text>
<text xml:space="preserve" x="96.1184" y="53.5734" fill="black" font-size="7.61741" font-family="Helvetica" font-weight="bold">-0.017</text>
<text xml:space="preserve" x="122.566" y="53.5734" fill="black" font-size="7.61741" font-family="Helvetica" font-weight="bold">-0.212</text>
<text xml:space="preserve" x="149.692" y="53.5734" fill="black" font-size="7.61741" font-family="Helvetica" font-weight="bold">0.006</text>
<text xml:space="preserve" x="176.14" y="53.5734" fill="black" font-size="7.61741" font-family="Helvetica" font-weight="bold">-0.04</text>
<text xml:space="preserve" x="201.909" y="53.5734" fill="black" font-size="7.61741" font-family="Helvetica" font-weight="bold">0.048</text>
<text xml:space="preserve" x="226.322" y="53.5734" fill="black" font-size="7.61741" font-family="Helvetica" font-weight="bold">-0.056</text>
<text xml:space="preserve" x="254.126" y="53.5734" fill="black" font-size="7.61741" font-family="Helvetica" font-weight="bold">0.032</text>
<text xml:space="preserve" x="278.539" y="53.5734" fill="black" font-size="7.61741" font-family="Helvetica" font-weight="bold">-0.092</text>
<text xml:space="preserve" x="306.343" y="53.5734" fill="black" font-size="7.61741" font-family="Helvetica" font-weight="bold">0.011</text>
<text xml:space="preserve" x="331.435" y="53.5734" fill="black" font-size="7.61741" font-family="Helvetica" font-weight="bold">-0.071</text>
<text xml:space="preserve" x="357.882" y="53.5734" fill="black" font-size="7.61741" font-family="Helvetica" font-weight="bold">0.124</text>
<text xml:space="preserve" x="384.33" y="53.5734" fill="black" font-size="7.61741" font-family="Helvetica" font-weight="bold">-0.13</text>
<text xml:space="preserve" x="408.743" y="53.5734" fill="black" font-size="7.61741" font-family="Helvetica" font-weight="bold">-0.035</text>
<text xml:space="preserve" x="434.513" y="53.5734" fill="black" font-size="7.61741" font-family="Helvetica" font-weight="bold">-0.078</text>
<text xml:space="preserve" x="462.317" y="53.5734" fill="black" font-size="7.61741" font-family="Helvetica" font-weight="bold">-0.06</text>
<text xml:space="preserve" x="486.73" y="53.5734" fill="black" font-size="7.61741" font-family="Helvetica" font-weight="bold">-0.039</text>
<text xml:space="preserve" x="97.4747" y="24.4132" fill="black" font-size="7.61741" font-family="Helvetica" font-weight="bold">0.078</text>
<text xml:space="preserve" x="125.957" y="24.4132" fill="black" font-size="7.61741" font-family="Helvetica" font-weight="bold">0.12</text>
<text xml:space="preserve" x="149.692" y="24.4132" fill="black" font-size="7.61741" font-family="Helvetica" font-weight="bold">0.049</text>
<text xml:space="preserve" x="175.461" y="24.4132" fill="black" font-size="7.61741" font-family="Helvetica" font-weight="bold">0.152</text>
<text xml:space="preserve" x="201.909" y="24.4132" fill="black" font-size="7.61741" font-family="Helvetica" font-weight="bold">0.073</text>
<text xml:space="preserve" x="227.679" y="24.4132" fill="black" font-size="7.61741" font-family="Helvetica" font-weight="bold">0.167</text>
<text xml:space="preserve" x="252.77" y="24.4132" fill="black" font-size="7.61741" font-family="Helvetica" font-weight="bold">-0.019</text>
<text xml:space="preserve" x="279.896" y="24.4132" fill="black" font-size="7.61741" font-family="Helvetica" font-weight="bold">0.198</text>
<text xml:space="preserve" x="305.665" y="24.4132" fill="black" font-size="7.61741" font-family="Helvetica" font-weight="bold">0.008</text>
<text xml:space="preserve" x="332.113" y="24.4132" fill="black" font-size="7.61741" font-family="Helvetica" font-weight="bold">0.156</text>
<text xml:space="preserve" x="358.561" y="24.4132" fill="black" font-size="7.61741" font-family="Helvetica" font-weight="bold">-0.08</text>
<text xml:space="preserve" x="385.686" y="24.4132" fill="black" font-size="7.61741" font-family="Helvetica" font-weight="bold">0.13</text>
<text xml:space="preserve" x="410.1" y="24.4132" fill="black" font-size="7.61741" font-family="Helvetica" font-weight="bold">0.044</text>
<text xml:space="preserve" x="435.869" y="24.4132" fill="black" font-size="7.61741" font-family="Helvetica" font-weight="bold">0.193</text>
<text xml:space="preserve" x="461.639" y="24.4132" fill="black" font-size="7.61741" font-family="Helvetica" font-weight="bold">0.103</text>
<text xml:space="preserve" x="488.086" y="24.4132" fill="black" font-size="7.61741" font-family="Helvetica" font-weight="bold">0.108</text>
<path d="M68.5315,356.867h 442.205" fill="none" stroke="black"/>
<path d="M68.5315,347.79v 9.07683" fill="none" stroke="black"/>
<path d="M81.5375,352.329v 4.53842" fill="none" stroke="black"/>
<path d="M94.5435,352.329v 4.53842" fill="none" stroke="black"/>
<path d="M107.55,352.329v 4.53842" fill="none" stroke="black"/>
<path d="M120.556,347.79v 9.07683" fill="none" stroke="black"/>
<path d="M133.562,352.329v 4.53842" fill="none" stroke="black"/>
<path d="M146.568,352.329v 4.53842" fill="none" stroke="black"/>
<path d="M159.574,352.329v 4.53842" fill="none" stroke="black"/>
<path d="M172.58,347.79v 9.07683" fill="none" stroke="black"/>
<path d="M185.586,352.329v 4.53842" fill="none" stroke="black"/>
<path d="M198.592,352.329v 4.53842" fill="none" stroke="black"/>
<path d="M211.598,352.329v 4.53842" fill="none" stroke="black"/>
<path d="M224.604,347.79v 9.07683" fill="none" stroke="black"/>
<path d="M237.61,352.329v 4.53842" fill="none" stroke="black"/>
<path d="M250.616,352.329v 4.53842" fill="none" stroke="black"/>
<path d="M263.622,352.329v 4.53842" fill="none" stroke="black"/>
<path d="M276.628,347.79v 9.07683" fill="none" stroke="black"/>
<path d="M289.634,352.329v 4.53842" fill="none" stroke="black"/>
<path d="M302.64,352.329v 4.53842" fill="none" stroke="black"/>
<path d="M315.646,352.329v 4.53842" fill="none" stroke="black"/>
<path d="M328.652,347.79v 9.07683" fill="none" stroke="black"/>
<path d="M341.658,352.329v 4.53842" fill="none" stroke="black"/>
<path d="M354.664,352.329v 4.53842" fill="none" stroke="black"/>
<path d="M367.67,352.329v 4.53842" fill="none" stroke="black"/>
<path d="M380.676,347.79v 9.07683" fill="none" stroke="black"/>
<path d="M393.682,352.329v 4.53842" fill="none" stroke="black"/>
<path d="M406.688,352.329v 4.53842" fill="none" stroke="black"/>
<path d="M419.694,352.329v 4.53842" fill="none" stroke="black"/>
<path d="M432.7,347.79v 9.07683" fill="none" stroke="black"/>
<path d="M445.706,352.329v 4.53842" fill="none" stroke="black"/>
<path d="M458.712,352.329v 4.53842" fill="none" stroke="black"/>
<path d="M471.718,352.329v 4.53842" fill="none" stroke="black"/>
<path d="M484.724,347.79v 9.07683" fill="none" stroke="black"/>
<path d="M484.724,347.79v 9.07683" fill="none" stroke="black"/>
<path d="M497.73,352.329v 4.53842" fill="none" stroke="black"/>
<path d="M510.736,352.329v 4.53842" fill="none" stroke="black"/>
<text xml:space="preserve" x="64.9238" y="369.589" fill="black" font-size="12.9555" font-family="Helvetica">0</text>
<text xml:space="preserve" x="117.141" y="369.589" fill="black" font-size="12.9555" font-family="Helvetica">2</text>
<text xml:space="preserve" x="168.68" y="369.589" fill="black" font-size="12.9555" font-family="Helvetica">4</text>
<text xml:space="preserve" x="220.897" y="369.589" fill="black" font-size="12.9555" font-family="Helvetica">6</text>
<text xml:space="preserve" x="273.114" y="369.589" fill="black" font-size="12.9555" font-family="Helvetica">8</text>
<text xml:space="preserve" x="320.584" y="369.589" fill="black" font-size="12.9555" font-family="Helvetica">10</text>
<text xml:space="preserve" x="372.802" y="369.589" fill="black" font-size="12.9555" font-family="Helvetica">12</text>
<text xml:space="preserve" x="425.019" y="369.589" fill="black" font-size="12.9555" font-family="Helvetica">14</text>
<text xml:space="preserve" x="477.236" y="369.589" fill="black" font-size="12.9555" font-family="Helvetica">16</text>
<text xml:space="preserve" x="473.167" y="383.83" fill="black" font-size="12.9555" font-family="Helvetica">Sector</text>
<path d="M68.5315,7.75798h 442.205" fill="none" stroke="black"/>
<path d="M68.5315,16.8348v -9.07683" fill="none" stroke="black"/>
<path d="M81.5375,12.2964v -4.53842" fill="none" stroke="black"/>
<path d="M94.5435,12.2964v -4.53842" fill="none" stroke="black"/>
<path d="M107.55,12.2964v -4.53842" fill="none" stroke="black"/>
<path d="M120.556,16.8348v -9.07683" fill="none" stroke="black"/>
<path d="M133.562,12.2964v -4.53842" fill="none" stroke="black"/>
<path d="M146.568,12.2964v -4.53842" fill="none" stroke="black"/>
<path d="M159.574,12.2964v -4.53842" fill="none" stroke="black"/>
<path d="M172.58,16.8348v -9.07683" fill="none" stroke="black"/>
<path d="M185.586,12.2964v -4.53842" fill="none" stroke="black"/>
<path d="M198.592,12.2964v -4.53842" fill="none" stroke="black"/>
<path d="M211.598,12.2964v -4.53842" fill="none" stroke="black"/>
<path d="M224.604,16.8348v -9.07683" fill="none" stroke="black"/>
<path d="M237.61,12.2964v -4.53842" fill="none" stroke="black"/>
<path d="M250.616,12.2964v -4.53842" fill="none" stroke="black"/>
<path d="M263.622,12.2964v -4.53842" fill="none" stroke="black"/>
<path d="M276.628,16.8348v -9.07683" fill="none" stroke="black"/>
<path d="M289.634,12.2964v -4.53842" fill="none" stroke="black"/>
<path d="M302.64,12.2964v -4.53842" fill="none" stroke="black"/>
<path d="M315.646,12.2964v -4.53842" fill="none" stroke="black"/>
<path d="M328.652,16.8348v -9.07683" fill="none" stroke="black"/>
<path d="M341.658,12.2964v -4.53842" fill="none" stroke="black"/>
<path d="M354.664,12.2964v -4.53842" fill="none" stroke="black"/>
<path d="M367.67,12.2964v -4.53842" fill="none" stroke="black"/>
<path d="M380.676,16.8348v -9.07683" fill="none" stroke="black"/>
<path d="M393.682,12.2964v -4.53842" fill="none" stroke="black"/>
<path d="M406.688,12.2964v -4.53842" fill="none" stroke="black"/>
<path d="M419.694,12.2964v -4.53842" fill="none" stroke="black"/>
<path d="M432.7,16.8348v -9.07683" fill="none" stroke="black"/>
<path d="M445.706,12.2964v -4.53842" fill="none" stroke="black"/>
<path d="M458.712,12.2964v -4.53842" fill="none" stroke="black"/>
<path d="M471.718,12.2964v -4.53842" fill="none" stroke="black"/>
<path d="M484.724,16.8348v -9.07683" fill="none" stroke="black"/>
<path d="M484.724,16.8348v -9.07683" fill="none" stroke="black"/>
<path d="M497.73,12.2964v -4.53842" fill="none" stroke="black"/>
<path d="M510.736,12.2964v -4.53842" fill="none" stroke="black"/>
<path d="M68.5315,356.867v -349.109" fill="none" stroke="black"/>
<path d="M83.8386,356.867h -15.3071" fill="none" stroke="black"/>
<path d="M76.185,342.321h -7.65354" fill="none" stroke="black"/>
<path d="M76.185,327.775h -7.65354" fill="none" stroke="black"/>
<path d="M76.185,313.228h -7.65354" fill="none" stroke="black"/>
<path d="M83.8386,298.682h -15.3071" fill="none" stroke="black"/>
<path d="M76.185,284.136h -7.65354" fill="none" stroke="black"/>
<path d="M76.185,269.59h -7.65354" fill="none" stroke="black"/>
<path d="M76.185,255.044h -7.65354" fill="none" stroke="black"/>
<path d="M83.8386,240.497h -15.3071" fill="none" stroke="black"/>
<path d="M76.185,225.951h -7.65354" fill="none" stroke="black"/>
<path d="M76.185,211.405h -7.65354" fill="none" stroke="black"/>
<path d="M76.185,196.859h -7.65354" fill="none" stroke="black"/>
<path d="M83.8386,182.312h -15.3071" fill="none" stroke="black"/>
<path d="M76.185,167.766h -7.65354" fill="none" stroke="black"/>
<path d="M76.185,153.22h -7.65354" fill="none" stroke="black"/>
<path d="M76.185,138.674h -7.65354" fill="none" stroke="black"/>
<path d="M83.8386,124.128h -15.3071" fill="none" stroke="black"/>
<path d="M76.185,109.581h -7.65354" fill="none" stroke="black"/>
<path d="M76.185,95.0352h -7.65354" fill="none" stroke="black"/>
<path d="M76.185,80.489h -7.65354" fill="none" stroke="black"/>
<path d="M83.8386,65.9428h -15.3071" fill="none" stroke="black"/>
<path d="M76.185,51.3966h -7.65354" fill="none" stroke="black"/>
<path d="M76.185,36.8504h -7.65354" fill="none" stroke="black"/>
<path d="M76.185,22.3042h -7.65354" fill="none" stroke="black"/>
<path d="M83.8386,7.75798h -15.3071" fill="none" stroke="black"/>
<text xml:space="preserve" x="58.8205" y="361.451" fill="black" font-size="12.9555" font-family="Helvetica">6</text>
<text xml:space="preserve" x="51.3609" y="361.451" fill="black" font-size="12.9555" font-family="Times">&#8722;</text>
<text xml:space="preserve" x="58.8205" y="303.809" fill="black" font-size="12.9555" font-family="Helvetica">4</text>
<text xml:space="preserve" x="51.3609" y="303.809" fill="black" font-size="12.9555" font-family="Times">&#8722;</text>
<text xml:space="preserve" x="58.8205" y="245.488" fill="black" font-size="12.9555" font-family="Helvetica">2</text>
<text xml:space="preserve" x="51.3609" y="245.488" fill="black" font-size="12.9555" font-family="Times">&#8722;</text>
<text xml:space="preserve" x="58.8205" y="186.49" fill="black" font-size="12.9555" font-family="Helvetica">0</text>
<text xml:space="preserve" x="58.8205" y="129.526" fill="black" font-size="12.9555" font-family="Helvetica">2</text>
<text xml:space="preserve" x="58.8205" y="71.2052" fill="black" font-size="12.9555" font-family="Helvetica">4</text>
<text xml:space="preserve" x="58.8205" y="12.2066" fill="black" font-size="12.9555" font-family="Helvetica">6</text>
<g transform="rotate(-90,38.4761,202.765)">
<text xml:space="preserve" x="38.4761" y="202.765" fill="black" font-size="12.9555" font-family="Helvetica">(StationEta - 1) * 2 + (Multiplet - 1)</text>
</g>
<path d="M510.736,356.867v -349.109" fill="none" stroke="black"/>
<path d="M495.429,356.867h 15.3071" fill="none" stroke="black"/>
<path d="M503.083,342.321h 7.65354" fill="none" stroke="black"/>
<path d="M503.083,327.775h 7.65354" fill="none" stroke="black"/>
<path d="M503.083,313.228h 7.65354" fill="none" stroke="black"/>
<path d="M495.429,298.682h 15.3071" fill="none" stroke="black"/>
<path d="M503.083,284.136h 7.65354" fill="none" stroke="black"/>
<path d="M503.083,269.59h 7.65354" fill="none" stroke="black"/>
<path d="M503.083,255.044h 7.65354" fill="none" stroke="black"/>
<path d="M495.429,240.497h 15.3071" fill="none" stroke="black"/>
<path d="M503.083,225.951h 7.65354" fill="none" stroke="black"/>
<path d="M503.083,211.405h 7.65354" fill="none" stroke="black"/>
<path d="M503.083,196.859h 7.65354" fill="none" stroke="black"/>
<path d="M495.429,182.312h 15.3071" fill="none" stroke="black"/>
<path d="M503.083,167.766h 7.65354" fill="none" stroke="black"/>
<path d="M503.083,153.22h 7.65354" fill="none" stroke="black"/>
<path d="M503.083,138.674h 7.65354" fill="none" stroke="black"/>
<path d="M495.429,124.128h 15.3071" fill="none" stroke="black"/>
<path d="M503.083,109.581h 7.65354" fill="none" stroke="black"/>
<path d="M503.083,95.0352h 7.65354" fill="none" stroke="black"/>
<path d="M503.083,80.489h 7.65354" fill="none" stroke="black"/>
<path d="M495.429,65.9428h 15.3071" fill="none" stroke="black"/>
<path d="M503.083,51.3966h 7.65354" fill="none" stroke="black"/>
<path d="M503.083,36.8504h 7.65354" fill="none" stroke="black"/>
<path d="M503.083,22.3042h 7.65354" fill="none" stroke="black"/>
<path d="M495.429,7.75798h 15.3071" fill="none" stroke="black"/>
<rect x="513.571" y="339.412" width="25.5118" height="17.4555" fill="#263da8"/>
<rect x="513.571" y="321.956" width="25.5118" height="17.4555" fill="#1652cc"/>
<rect x="513.571" y="304.501" width="25.5118" height="17.4555" fill="#1063db"/>
<rect x="513.571" y="287.045" width="25.5118" height="17.4555" fill="#1171d8"/>
<rect x="513.571" y="269.59" width="25.5118" height="17.4555" fill="#1380d5"/>
<rect x="513.571" y="252.134" width="25.5118" height="17.4555" fill="#0e8ed0"/>
<rect x="513.571" y="234.679" width="25.5118" height="17.4555" fill="#089dcc"/>
<rect x="513.571" y="217.223" width="25.5118" height="17.4555" fill="#0da7c2"/>
<rect x="513.571" y="199.768" width="25.5118" height="17.4555" fill="#1dafb3"/>
<rect x="513.571" y="182.312" width="25.5118" height="17.4555" fill="#2db7a3"/>
<rect x="513.571" y="164.857" width="25.5118" height="17.4555" fill="#52ba91"/>
<rect x="513.571" y="147.402" width="25.5118" height="17.4555" fill="#73bd80"/>
<rect x="513.571" y="129.946" width="25.5118" height="17.4555" fill="#94be71"/>
<rect x="513.571" y="112.491" width="25.5118" height="17.4555" fill="#b2bc65"/>
<rect x="513.571" y="95.0352" width="25.5118" height="17.4555" fill="#d0ba59"/>
<rect x="513.571" y="77.5798" width="25.5118" height="17.4555" fill="#e1bf4a"/>
<rect x="513.571" y="60.1243" width="25.5118" height="17.4555" fill="#f4c53a"/>
<rect x="513.571" y="42.6689" width="25.5118" height="17.4555" fill="#fcd12b"/>
<rect x="513.571" y="25.2134" width="25.5118" height="17.4555" fill="#fae61c"/>
<rect x="513.571" y="7.75798" width="25.5118" height="17.4555" fill="#f9f90e"/>
<path d="M539.083,356.867v -349.109" fill="none" stroke="black"/>
<path d="M523.776,329.09h 15.3071" fill="none" stroke="black"/>
<path d="M523.776,265.96h 15.3071" fill="none" stroke="black"/>
<path d="M523.776,202.83h 15.3071" fill="none" stroke="black"/>
<path d="M523.776,139.7h 15.3071" fill="none" stroke="black"/>
<path d="M523.776,76.5697h 15.3071" fill="none" stroke="black"/>
<path d="M523.776,13.4397h 15.3071" fill="none" stroke="black"/>
<path d="M523.776,329.09h 15.3071" fill="none" stroke="black"/>
<path d="M523.776,13.4397h 15.3071" fill="none" stroke="black"/>
<text xml:space="preserve" x="548.441" y="333.647" fill="black" font-size="12.9555" font-family="Helvetica">0.2</text>
<text xml:space="preserve" x="541.66" y="333.647" fill="black" font-size="12.9555" font-family="Times">&#8722;</text>
<text xml:space="preserve" x="548.441" y="270.58" fill="black" font-size="12.9555" font-family="Helvetica">0.1</text>
<text xml:space="preserve" x="541.66" y="270.58" fill="black" font-size="12.9555" font-family="Times">&#8722;</text>
<text xml:space="preserve" x="541.66" y="207.512" fill="black" font-size="12.9555" font-family="Helvetica">0</text>
<text xml:space="preserve" x="541.66" y="144.445" fill="black" font-size="12.9555" font-family="Helvetica">0.1</text>
<text xml:space="preserve" x="541.66" y="80.6992" fill="black" font-size="12.9555" font-family="Helvetica">0.2</text>
<text xml:space="preserve" x="541.66" y="17.6318" fill="black" font-size="12.9555" font-family="Helvetica">0.3</text></svg>
