#/eos/atlas/atlastier0/rucio/data23_13p6TeV/physics_Main/00454222/data23_13p6TeV.00454222.physics_Main.merge.NTUP_MUTEST.f1360_m2180_c1404_m2100/
data23_13p6TeV.00454222.physics_Main.merge.NTUP_MUTEST.f1360_m2180_c1404_m2100._0001.1
data23_13p6TeV.00454222.physics_Main.merge.NTUP_MUTEST.f1360_m2180_c1404_m2100._0002.1
data23_13p6TeV.00454222.physics_Main.merge.NTUP_MUTEST.f1360_m2180_c1404_m2100._0003.1
data23_13p6TeV.00454222.physics_Main.merge.NTUP_MUTEST.f1360_m2180_c1404_m2100._0004.1
data23_13p6TeV.00454222.physics_Main.merge.NTUP_MUTEST.f1360_m2180_c1404_m2100._0005.1
data23_13p6TeV.00454222.physics_Main.merge.NTUP_MUTEST.f1360_m2180_c1404_m2100._0006.1
data23_13p6TeV.00454222.physics_Main.merge.NTUP_MUTEST.f1360_m2180_c1404_m2100._0007.1
data23_13p6TeV.00454222.physics_Main.merge.NTUP_MUTEST.f1360_m2180_c1404_m2100._0008.1
data23_13p6TeV.00454222.physics_Main.merge.NTUP_MUTEST.f1360_m2180_c1404_m2100._0009.1
data23_13p6TeV.00454222.physics_Main.merge.NTUP_MUTEST.f1360_m2180_c1404_m2100._0010.1
data23_13p6TeV.00454222.physics_Main.merge.NTUP_MUTEST.f1360_m2180_c1404_m2100._0011.1
data23_13p6TeV.00454222.physics_Main.merge.NTUP_MUTEST.f1360_m2180_c1404_m2100._0012.1
data23_13p6TeV.00454222.physics_Main.merge.NTUP_MUTEST.f1360_m2180_c1404_m2100._0013.1
data23_13p6TeV.00454222.physics_Main.merge.NTUP_MUTEST.f1360_m2180_c1404_m2100._0014.1
data23_13p6TeV.00454222.physics_Main.merge.NTUP_MUTEST.f1360_m2180_c1404_m2100._0015.1
data23_13p6TeV.00454222.physics_Main.merge.NTUP_MUTEST.f1360_m2180_c1404_m2100._0016.1
data23_13p6TeV.00454222.physics_Main.merge.NTUP_MUTEST.f1360_m2180_c1404_m2100._0017.1
data23_13p6TeV.00454222.physics_Main.merge.NTUP_MUTEST.f1360_m2180_c1404_m2100._0018.1
data23_13p6TeV.00454222.physics_Main.merge.NTUP_MUTEST.f1360_m2180_c1404_m2100._0019.1
data23_13p6TeV.00454222.physics_Main.merge.NTUP_MUTEST.f1360_m2180_c1404_m2100._0020.1
data23_13p6TeV.00454222.physics_Main.merge.NTUP_MUTEST.f1360_m2180_c1404_m2100._0021.1
data23_13p6TeV.00454222.physics_Main.merge.NTUP_MUTEST.f1360_m2180_c1404_m2100._0022.1
data23_13p6TeV.00454222.physics_Main.merge.NTUP_MUTEST.f1360_m2180_c1404_m2100._0023.1
data23_13p6TeV.00454222.physics_Main.merge.NTUP_MUTEST.f1360_m2180_c1404_m2100._0024.1
data23_13p6TeV.00454222.physics_Main.merge.NTUP_MUTEST.f1360_m2180_c1404_m2100._0025.1
data23_13p6TeV.00454222.physics_Main.merge.NTUP_MUTEST.f1360_m2180_c1404_m2100._0026.1
data23_13p6TeV.00454222.physics_Main.merge.NTUP_MUTEST.f1360_m2180_c1404_m2100._0027.1
data23_13p6TeV.00454222.physics_Main.merge.NTUP_MUTEST.f1360_m2180_c1404_m2100._0028.1
data23_13p6TeV.00454222.physics_Main.merge.NTUP_MUTEST.f1360_m2180_c1404_m2100._0029.1
data23_13p6TeV.00454222.physics_Main.merge.NTUP_MUTEST.f1360_m2180_c1404_m2100._0030.1
data23_13p6TeV.00454222.physics_Main.merge.NTUP_MUTEST.f1360_m2180_c1404_m2100._0031.1
data23_13p6TeV.00454222.physics_Main.merge.NTUP_MUTEST.f1360_m2180_c1404_m2100._0032.1
data23_13p6TeV.00454222.physics_Main.merge.NTUP_MUTEST.f1360_m2180_c1404_m2100._0033.1
data23_13p6TeV.00454222.physics_Main.merge.NTUP_MUTEST.f1360_m2180_c1404_m2100._0034.1
data23_13p6TeV.00454222.physics_Main.merge.NTUP_MUTEST.f1360_m2180_c1404_m2100._0035.1
data23_13p6TeV.00454222.physics_Main.merge.NTUP_MUTEST.f1360_m2180_c1404_m2100._0036.1
data23_13p6TeV.00454222.physics_Main.merge.NTUP_MUTEST.f1360_m2180_c1404_m2100._0037.1
data23_13p6TeV.00454222.physics_Main.merge.NTUP_MUTEST.f1360_m2180_c1404_m2100._0038.1
data23_13p6TeV.00454222.physics_Main.merge.NTUP_MUTEST.f1360_m2180_c1404_m2100._0039.1
data23_13p6TeV.00454222.physics_Main.merge.NTUP_MUTEST.f1360_m2180_c1404_m2100._0040.1
data23_13p6TeV.00454222.physics_Main.merge.NTUP_MUTEST.f1360_m2180_c1404_m2100._0041.1
data23_13p6TeV.00454222.physics_Main.merge.NTUP_MUTEST.f1360_m2180_c1404_m2100._0042.1
data23_13p6TeV.00454222.physics_Main.merge.NTUP_MUTEST.f1360_m2180_c1404_m2100._0043.1
data23_13p6TeV.00454222.physics_Main.merge.NTUP_MUTEST.f1360_m2180_c1404_m2100._0044.1
data23_13p6TeV.00454222.physics_Main.merge.NTUP_MUTEST.f1360_m2180_c1404_m2100._0045.1
data23_13p6TeV.00454222.physics_Main.merge.NTUP_MUTEST.f1360_m2180_c1404_m2100._0046.1
data23_13p6TeV.00454222.physics_Main.merge.NTUP_MUTEST.f1360_m2180_c1404_m2100._0047.1
data23_13p6TeV.00454222.physics_Main.merge.NTUP_MUTEST.f1360_m2180_c1404_m2100._0048.1
data23_13p6TeV.00454222.physics_Main.merge.NTUP_MUTEST.f1360_m2180_c1404_m2100._0049.1
data23_13p6TeV.00454222.physics_Main.merge.NTUP_MUTEST.f1360_m2180_c1404_m2100._0050.1
data23_13p6TeV.00454222.physics_Main.merge.NTUP_MUTEST.f1360_m2180_c1404_m2100._0051.1
data23_13p6TeV.00454222.physics_Main.merge.NTUP_MUTEST.f1360_m2180_c1404_m2100._0052.1
data23_13p6TeV.00454222.physics_Main.merge.NTUP_MUTEST.f1360_m2180_c1404_m2100._0053.1
data23_13p6TeV.00454222.physics_Main.merge.NTUP_MUTEST.f1360_m2180_c1404_m2100._0054.1
data23_13p6TeV.00454222.physics_Main.merge.NTUP_MUTEST.f1360_m2180_c1404_m2100._0055.1
data23_13p6TeV.00454222.physics_Main.merge.NTUP_MUTEST.f1360_m2180_c1404_m2100._0056.1
data23_13p6TeV.00454222.physics_Main.merge.NTUP_MUTEST.f1360_m2180_c1404_m2100._0057.1
data23_13p6TeV.00454222.physics_Main.merge.NTUP_MUTEST.f1360_m2180_c1404_m2100._0058.1
data23_13p6TeV.00454222.physics_Main.merge.NTUP_MUTEST.f1360_m2180_c1404_m2100._0059.1
data23_13p6TeV.00454222.physics_Main.merge.NTUP_MUTEST.f1360_m2180_c1404_m2100._0060.1
data23_13p6TeV.00454222.physics_Main.merge.NTUP_MUTEST.f1360_m2180_c1404_m2100._0061.1
data23_13p6TeV.00454222.physics_Main.merge.NTUP_MUTEST.f1360_m2180_c1404_m2100._0062.1
data23_13p6TeV.00454222.physics_Main.merge.NTUP_MUTEST.f1360_m2180_c1404_m2100._0063.1
data23_13p6TeV.00454222.physics_Main.merge.NTUP_MUTEST.f1360_m2180_c1404_m2100._0064.1
data23_13p6TeV.00454222.physics_Main.merge.NTUP_MUTEST.f1360_m2180_c1404_m2100._0065.1
data23_13p6TeV.00454222.physics_Main.merge.NTUP_MUTEST.f1360_m2180_c1404_m2100._0066.1
data23_13p6TeV.00454222.physics_Main.merge.NTUP_MUTEST.f1360_m2180_c1404_m2100._0067.1
data23_13p6TeV.00454222.physics_Main.merge.NTUP_MUTEST.f1360_m2180_c1404_m2100._0068.1
data23_13p6TeV.00454222.physics_Main.merge.NTUP_MUTEST.f1360_m2180_c1404_m2100._0069.1
data23_13p6TeV.00454222.physics_Main.merge.NTUP_MUTEST.f1360_m2180_c1404_m2100._0070.1
data23_13p6TeV.00454222.physics_Main.merge.NTUP_MUTEST.f1360_m2180_c1404_m2100._0071.1
data23_13p6TeV.00454222.physics_Main.merge.NTUP_MUTEST.f1360_m2180_c1404_m2100._0072.1
data23_13p6TeV.00454222.physics_Main.merge.NTUP_MUTEST.f1360_m2180_c1404_m2100._0073.1
data23_13p6TeV.00454222.physics_Main.merge.NTUP_MUTEST.f1360_m2180_c1404_m2100._0074.1
data23_13p6TeV.00454222.physics_Main.merge.NTUP_MUTEST.f1360_m2180_c1404_m2100._0075.1
data23_13p6TeV.00454222.physics_Main.merge.NTUP_MUTEST.f1360_m2180_c1404_m2100._0076.1
data23_13p6TeV.00454222.physics_Main.merge.NTUP_MUTEST.f1360_m2180_c1404_m2100._0077.1
data23_13p6TeV.00454222.physics_Main.merge.NTUP_MUTEST.f1360_m2180_c1404_m2100._0078.1
data23_13p6TeV.00454222.physics_Main.merge.NTUP_MUTEST.f1360_m2180_c1404_m2100._0079.1
data23_13p6TeV.00454222.physics_Main.merge.NTUP_MUTEST.f1360_m2180_c1404_m2100._0080.1
data23_13p6TeV.00454222.physics_Main.merge.NTUP_MUTEST.f1360_m2180_c1404_m2100._0081.1
data23_13p6TeV.00454222.physics_Main.merge.NTUP_MUTEST.f1360_m2180_c1404_m2100._0082.1
data23_13p6TeV.00454222.physics_Main.merge.NTUP_MUTEST.f1360_m2180_c1404_m2100._0083.1
